^C:\USERS\T420S\DOCUMENTS\VISUAL STUDIO 2013\PROJECTS\PROGRAMMEERIMISE WORKSHOP 2015\PROGRAMMEERIMISE WORKSHOP 2015\PROGRAMMEERIMISE WORKSHOP 2015.CPP
/c /ID:\opencv3.0.0\opencv\build\include /ID:\boost_1_58_0 /Zi /nologo /W3 /WX- /O2 /Oi /GL /D WIN32 /D NDEBUG /D _CONSOLE /D _LIB /D _UNICODE /D UNICODE /Gm- /EHsc /MD /GS /Gy /Zc:wchar_t /Zc:forScope /Fo"X64\RELEASE\\" /Fd"X64\RELEASE\VC120.PDB" /Gd /TP C:\USERS\T420S\DOCUMENTS\VISUAL STUDIO 2013\PROJECTS\PROGRAMMEERIMISE WORKSHOP 2015\PROGRAMMEERIMISE WORKSHOP 2015\PROGRAMMEERIMISE WORKSHOP 2015.CPP
^C:\USERS\T420S\DOCUMENTS\VISUAL STUDIO 2013\PROJECTS\PROGRAMMEERIMISE WORKSHOP 2015\PROGRAMMEERIMISE WORKSHOP 2015\STDAFX.CPP
/c /ID:\opencv3.0.0\opencv\build\include /ID:\boost_1_58_0 /Zi /nologo /W3 /WX- /O2 /Oi /GL /D WIN32 /D NDEBUG /D _CONSOLE /D _LIB /D _UNICODE /D UNICODE /Gm- /EHsc /MD /GS /Gy /Zc:wchar_t /Zc:forScope /Fo"X64\RELEASE\\" /Fd"X64\RELEASE\VC120.PDB" /Gd /TP C:\USERS\T420S\DOCUMENTS\VISUAL STUDIO 2013\PROJECTS\PROGRAMMEERIMISE WORKSHOP 2015\PROGRAMMEERIMISE WORKSHOP 2015\STDAFX.CPP
