^C:\USERS\T420S\DOCUMENTS\VISUAL STUDIO 2013\PROJECTS\PROGRAMMEERIMISE WORKSHOP 2015\PROGRAMMEERIMISE WORKSHOP 2015\RELEASE\PROGRAMMEERIMISE WORKSHOP 2015.OBJ|C:\USERS\T420S\DOCUMENTS\VISUAL STUDIO 2013\PROJECTS\PROGRAMMEERIMISE WORKSHOP 2015\PROGRAMMEERIMISE WORKSHOP 2015\RELEASE\STDAFX.OBJ
C:\USERS\T420S\DOCUMENTS\VISUAL STUDIO 2013\PROJECTS\PROGRAMMEERIMISE WORKSHOP 2015\RELEASE\1. BLOCK.EXE
C:\USERS\T420S\DOCUMENTS\VISUAL STUDIO 2013\PROJECTS\PROGRAMMEERIMISE WORKSHOP 2015\RELEASE\1. BLOCK.PDB
